<svg xmlns="http://www.w3.org/2000/svg" width="23.544" height="23.534" viewBox="0 0 23.544 23.534">
  <path id="whatsapp" d="M20.023,35.422A11.674,11.674,0,0,0,1.656,49.5L0,55.55l6.187-1.624a11.634,11.634,0,0,0,5.577,1.419h.005a11.6,11.6,0,0,0,8.253-19.923ZM11.77,53.379a9.682,9.682,0,0,1-4.941-1.351l-.352-.21-3.669.962.978-3.58-.231-.368a9.769,9.769,0,1,1,8.215,4.547Zm5.32-7.265c-.289-.147-1.724-.852-1.992-.946s-.463-.147-.657.147-.752.946-.925,1.146-.342.221-.631.074a7.937,7.937,0,0,1-3.969-3.469c-.3-.515.3-.478.857-1.593a.54.54,0,0,0-.026-.51c-.074-.147-.657-1.582-.9-2.166-.237-.568-.478-.489-.657-.5s-.363-.011-.557-.011a1.08,1.08,0,0,0-.778.363,3.277,3.277,0,0,0-1.02,2.434A5.713,5.713,0,0,0,7.023,44.1a13.03,13.03,0,0,0,4.983,4.405c1.85.8,2.576.867,3.5.731a2.987,2.987,0,0,0,1.966-1.388,2.439,2.439,0,0,0,.168-1.388c-.067-.13-.261-.2-.55-.346Z" transform="translate(0 -32.016)" fill="#594747"/>
</svg>
